{
  "customers": [
    {
      "id": "1",
      "name": "da07",
      "email": "dhekerabidi@gmail.com",
      "age": 23
    },
    {
      "id": "2",
      "name": "ines",
      "email": "ines@gmail.com",
      "age": 25
    }
  ]
}